0,1359.0078125,2183.431640625
1,1324.9605712890625,2176.406982421875
2,1289.3193359375,2168.5341796875
3,1254.10986328125,2159.321044921875
4,1214.8515625,2149.808837890625
5,1180.0,2139.0
6,1139.0,2126.0
7,1099.0,2112.0
8,1061.0,2097.0
9,1020.3685302734375,2080.29443359375
10,980.8628540039062,2062.29345703125
11,941.5044555664062,2043.4560546875
12,902.6834716796875,2023.357421875
13,864.2079467773438,2002.1011962890625
14,826.6964111328125,1980.06884765625
15,789.81103515625,1956.893310546875
16,754.6715698242188,1933.326904296875
17,720.0485229492188,1909.05615234375
18,687.534423828125,1884.056884765625
19,1378.0482177734375,2165.44775390625
20,1343.1861572265625,2158.607421875
21,1307.5172119140625,2150.4931640625
22,1270.4300537109375,2141.24951171875
23,1233.0975341796875,2130.67919921875
24,1192.71484375,2119.5390625
25,1154.9549560546875,2107.318359375
26,1113.0,2093.0
27,1073.0,2077.0
28,1031.9544677734375,2059.424560546875
29,991.1549682617188,2041.10888671875
30,951.2338256835938,2021.531005859375
31,910.9920043945312,2000.716552734375
32,871.6802368164062,1978.90380859375
33,832.891357421875,1955.9246826171875
34,795.5415649414062,1932.2900390625
35,759.0955810546875,1907.8326416015625
36,724.2739868164062,1882.902099609375
37,690.6886596679688,1857.4676513671875
38,1398.0,2147.0
39,1363.0,2140.0
40,1326.0,2132.0
41,1289.0792236328125,2121.463134765625
42,1250.0572509765625,2110.896484375
43,1211.1072998046875,2098.74169921875
44,1168.4095458984375,2085.624267578125
45,1128.0,2072.0
46,1086.0,2056.0
47,1044.1396484375,2037.3404541015625
48,1003.0651245117188,2018.210693359375
49,961.1358642578125,1997.8822021484375
50,920.39013671875,1976.53466796875
51,879.6591186523438,1953.7919921875
52,840.3112182617188,1930.203857421875
53,801.6377563476562,1905.670654296875
54,764.6839599609375,1880.50732421875
55,729.0125122070312,1854.8201904296875
56,694.7921752929688,1828.4483642578125
57,1419.0,2127.0
58,1383.0,2120.0
59,1345.8839111328125,2110.30908203125
60,1307.4510498046875,2100.5712890625
61,1268.49853515625,2089.4208984375
62,1227.3448486328125,2077.27490234375
63,1187.3616943359375,2062.875244140625
64,1143.809814453125,2047.595947265625
65,1100.8568115234375,2031.3743896484375
66,1057.655029296875,2012.8541259765625
67,1015.2179565429688,1993.592529296875
68,972.6586303710938,1972.4521484375
69,930.4147338867188,1950.322021484375
70,888.9854125976562,1926.906494140625
71,848.3274536132812,1902.479736328125
72,809.018310546875,1877.2740478515625
73,770.7391357421875,1851.2655029296875
74,734.4473266601562,1824.7947998046875
75,699.5385131835938,1798.0224609375
76,1439.2523193359375,2104.47802734375
77,1403.558349609375,2096.8017578125
78,1366.356689453125,2087.83154296875
79,1327.7557373046875,2077.74462890625
80,1287.33544921875,2066.4873046875
81,1247.088623046875,2053.42919921875
82,1203.583984375,2039.1578369140625
83,1162.1929931640625,2023.068603515625
84,1115.9178466796875,2005.2406005859375
85,1072.4356689453125,1986.9681396484375
86,1028.8353271484375,1966.692626953125
87,984.9295043945312,1945.0992431640625
88,941.9306030273438,1922.18017578125
89,898.9810791015625,1897.8873291015625
90,857.4418334960938,1872.6837158203125
91,816.958984375,1846.5379638671875
92,778.3748168945312,1820.0599365234375
93,740.9663696289062,1792.7327880859375
94,705.64794921875,1765.3482666015625
95,1461.6513671875,2080.961669921875
96,1425.5882568359375,2073.136474609375
97,1388.0963134765625,2063.71435546875
98,1348.4630126953125,2053.47412109375
99,1308.412109375,2041.403076171875
100,1265.831787109375,2027.8865966796875
101,1223.6619873046875,2012.9005126953125
102,1178.739501953125,1996.4246826171875
103,1134.3592529296875,1978.6859130859375
104,1088.4638671875,1959.2816162109375
105,1043.6231689453125,1938.1173095703125
106,998.6076049804688,1915.525146484375
107,954.0159301757812,1891.8033447265625
108,910.4484252929688,1866.732666015625
109,867.5690307617188,1840.72607421875
110,826.4850463867188,1813.7884521484375
111,786.520751953125,1786.4112548828125
112,748.7662963867188,1758.56640625
113,712.5274658203125,1730.502685546875
114,1484.6927490234375,2055.97412109375
115,1448.7652587890625,2047.431396484375
116,1410.375244140625,2038.0458984375
117,1371.185546875,2026.7879638671875
118,1329.549072265625,2014.6051025390625
119,1287.173095703125,2000.6568603515625
120,1242.8653564453125,1985.291259765625
121,1198.3853759765625,1967.892822265625
122,1152.1177978515625,1949.4139404296875
123,1106.09619140625,1929.09814453125
124,1059.5845947265625,1907.0931396484375
125,1013.5219116210938,1883.779052734375
126,967.8316650390625,1859.2281494140625
127,922.8740844726562,1833.32177734375
128,879.227783203125,1806.34326171875
129,836.9824829101562,1778.824462890625
130,796.5069580078125,1750.66064453125
131,757.5156860351562,1722.252197265625
132,721.0808715820312,1693.6610107421875
133,1509.126220703125,2029.176025390625
134,1472.3748779296875,2020.334228515625
135,1434.081298828125,2010.0880126953125
136,1394.0833740234375,1998.6328125
137,1352.51806640625,1985.5693359375
138,1309.0146484375,1971.2120361328125
139,1264.7352294921875,1954.8485107421875
140,1218.487060546875,1937.076416015625
141,1172.14453125,1917.61669921875
142,1124.527099609375,1896.3804931640625
143,1077.1461181640625,1873.6661376953125
144,1029.7093505859375,1849.56591796875
145,982.9451904296875,1824.09423828125
146,937.0633544921875,1797.3577880859375
147,892.0387573242188,1769.599853515625
148,849.0829467773438,1741.349365234375
149,807.5084838867188,1712.4986572265625
150,768.1891479492188,1683.5172119140625
151,730.5381469726562,1654.31494140625
152,1533.5260009765625,2000.51806640625
153,1497.1309814453125,1991.2318115234375
154,1458.7410888671875,1980.4080810546875
155,1418.4478759765625,1968.217041015625
156,1376.3394775390625,1954.670654296875
157,1332.714111328125,1939.334716796875
158,1286.9945068359375,1922.6024169921875
159,1240.801025390625,1903.759033203125
160,1192.9351806640625,1883.49072265625
161,1144.642578125,1861.525146484375
162,1096.169677734375,1837.8934326171875
163,1047.58154296875,1812.819091796875
164,999.6161499023438,1786.52880859375
165,952.4973754882812,1758.810791015625
166,907.0038452148438,1730.463623046875
167,862.6924438476562,1701.447998046875
168,820.4158325195312,1671.8720703125
169,779.982421875,1642.2828369140625
170,742.3493041992188,1613.149169921875
171,1558.9827880859375,1970.1363525390625
172,1522.6859130859375,1959.91357421875
173,1484.324951171875,1948.5718994140625
174,1443.6805419921875,1935.68115234375
175,1401.376708984375,1921.444580078125
176,1357.1351318359375,1905.4892578125
177,1311.4835205078125,1887.5401611328125
178,1263.7452392578125,1868.255615234375
179,1215.65966796875,1846.777099609375
180,1166.3345947265625,1823.9373779296875
181,1116.5906982421875,1799.5263671875
182,1067.15869140625,1773.5020751953125
183,1018.1448974609375,1746.2559814453125
184,970.1862182617188,1717.83203125
185,923.0711669921875,1688.6710205078125
186,878.1219482421875,1658.97119140625
187,834.8488159179688,1629.025146484375
188,794.0576782226562,1599.0723876953125
189,755.3048706054688,1569.464111328125
190,1585.333984375,1937.7474365234375
191,1549.20263671875,1926.836669921875
192,1510.669677734375,1914.7623291015625
193,1470.3560791015625,1900.9212646484375
194,1427.529052734375,1885.9398193359375
195,1383.07861328125,1868.847412109375
196,1336.606201171875,1850.360595703125
197,1288.8221435546875,1829.8468017578125
198,1239.4957275390625,1807.749267578125
199,1189.4512939453125,1783.7420654296875
200,1138.919189453125,1758.4847412109375
201,1088.3076171875,1731.4326171875
202,1038.36328125,1703.4471435546875
203,989.020751953125,1674.1925048828125
204,941.3966064453125,1644.448974609375
205,895.3895263671875,1614.197509765625
206,851.426513671875,1583.616943359375
207,809.585205078125,1553.4775390625
208,770.5452270507812,1523.728271484375
209,1611.9052734375,1903.6639404296875
210,1575.606689453125,1891.8092041015625
211,1537.867431640625,1878.766845703125
212,1497.285400390625,1864.343505859375
213,1454.6043701171875,1847.95263671875
214,1409.9515380859375,1830.3402099609375
215,1363.453369140625,1810.4815673828125
216,1314.8841552734375,1789.291748046875
217,1265.1094970703125,1765.93017578125
218,1214.2574462890625,1741.3253173828125
219,1162.8021240234375,1714.6900634765625
220,1111.3807373046875,1686.849365234375
221,1060.3048095703125,1657.82177734375
222,1010.3741455078125,1628.0469970703125
223,961.4457397460938,1597.3927001953125
224,914.767333984375,1566.9415283203125
225,869.9962768554688,1536.2159423828125
226,827.58984375,1505.75634765625
227,787.795654296875,1476.0439453125
228,1638.895751953125,1868.1148681640625
229,1602.997314453125,1855.382568359375
230,1565.3076171875,1841.296142578125
231,1525.2513427734375,1825.4495849609375
232,1482.5477294921875,1808.1826171875
233,1437.9365234375,1789.058837890625
234,1391.0169677734375,1768.51611328125
235,1342.5537109375,1745.9354248046875
236,1292.0316162109375,1721.8450927734375
237,1240.6173095703125,1695.794921875
238,1188.5589599609375,1668.45703125
239,1136.08056640625,1639.6051025390625
240,1084.37109375,1610.0994873046875
241,1033.426513671875,1579.426025390625
242,983.8767700195312,1548.5411376953125
243,936.1461181640625,1517.470703125
244,890.73046875,1486.5018310546875
245,847.54541015625,1456.1005859375
246,807.3016357421875,1426.493408203125
247,1665.7662353515625,1830.588134765625
248,1630.6383056640625,1816.673828125
249,1593.4776611328125,1801.451171875
250,1553.49560546875,1784.657470703125
251,1511.2188720703125,1766.1593017578125
252,1466.6058349609375,1746.14599609375
253,1419.9639892578125,1724.0892333984375
254,1370.9525146484375,1700.638427734375
255,1320.396484375,1675.2528076171875
256,1268.515625,1648.4095458984375
257,1215.8648681640625,1619.7550048828125
258,1163.0321044921875,1590.358154296875
259,1110.3062744140625,1559.7369384765625
260,1058.6669921875,1528.6553955078125
261,1008.268798828125,1497.3056640625
262,960.1129760742188,1465.960693359375
263,913.6287841796875,1435.1549072265625
264,870.2244262695312,1405.07568359375
265,828.880859375,1375.5601806640625
266,1692.70654296875,1791.5941162109375
267,1658.45458984375,1776.588623046875
268,1621.4825439453125,1760.361083984375
269,1582.216064453125,1742.2041015625
270,1540.370361328125,1722.46728515625
271,1496.09765625,1700.827880859375
272,1449.3565673828125,1677.89501953125
273,1400.480224609375,1653.0269775390625
274,1349.786865234375,1626.8421630859375
275,1297.7498779296875,1598.55859375
276,1244.6517333984375,1569.376953125
277,1191.472412109375,1538.9228515625
278,1138.3079833984375,1507.7340087890625
279,1086.0040283203125,1476.30615234375
280,1035.1824951171875,1444.7108154296875
281,985.8361206054688,1413.2115478515625
282,939.1773071289062,1382.3980712890625
283,894.6073608398438,1352.515625
284,853.2088623046875,1323.6334228515625
285,1719.6322021484375,1751.4273681640625
286,1685.9512939453125,1735.1195068359375
287,1649.873779296875,1717.2061767578125
288,1610.817138671875,1697.8680419921875
289,1569.647705078125,1677.0186767578125
290,1525.555419921875,1654.33056640625
291,1479.4920654296875,1629.853515625
292,1430.8355712890625,1604.0521240234375
293,1380.3924560546875,1576.3858642578125
294,1328.314208984375,1547.3133544921875
295,1274.936767578125,1517.2421875
296,1221.5087890625,1486.1839599609375
297,1167.80029296875,1454.1275634765625
298,1115.2969970703125,1422.5435791015625
299,1063.5458984375,1390.556396484375
300,1014.1012573242188,1359.3729248046875
301,966.541748046875,1328.7330322265625
302,921.7429809570312,1299.3995361328125
303,879.505126953125,1271.1331787109375
304,1746.1571044921875,1710.024658203125
305,1712.953857421875,1692.39599609375
306,1677.6534423828125,1673.3935546875
307,1639.567138671875,1652.6834716796875
308,1598.7496337890625,1630.388916015625
309,1555.521240234375,1606.4097900390625
310,1509.6229248046875,1580.683349609375
311,1461.521484375,1553.497802734375
312,1411.4505615234375,1524.86474609375
313,1359.2967529296875,1494.94921875
314,1306.455322265625,1464.032470703125
315,1252.665771484375,1432.1240234375
316,1199.0633544921875,1400.157958984375
317,1146.191650390625,1367.8731689453125
318,1094.28857421875,1336.0496826171875
319,1043.9725341796875,1304.9102783203125
320,996.2886962890625,1274.854736328125
321,950.7993774414062,1246.0718994140625
322,908.0057373046875,1218.4730224609375
323,1771.93017578125,1667.7489013671875
324,1739.7137451171875,1648.957763671875
325,1705.1962890625,1628.4901123046875
326,1667.6395263671875,1606.4366455078125
327,1627.67333984375,1582.81396484375
328,1584.9393310546875,1557.5169677734375
329,1539.8486328125,1530.718994140625
330,1492.45703125,1502.48095703125
331,1442.67626953125,1472.663330078125
332,1391.319091796875,1441.8280029296875
333,1338.3831787109375,1410.2467041015625
334,1285.0567626953125,1377.747802734375
335,1231.3270263671875,1345.3582763671875
336,1178.237060546875,1313.021484375
337,1126.229736328125,1281.505126953125
338,1075.995361328125,1250.6229248046875
339,1027.5849609375,1221.2567138671875
340,981.8141479492188,1192.8968505859375
341,938.4006958007812,1166.032470703125
342,1797.0494384765625,1625.1390380859375
343,1765.601318359375,1604.930908203125
344,1731.7611083984375,1583.2939453125
345,1695.352783203125,1560.005126953125
346,1655.8546142578125,1535.1439208984375
347,1614.2655029296875,1508.456787109375
348,1569.65966796875,1480.6014404296875
349,1522.9283447265625,1451.27978515625
350,1474.174560546875,1420.5252685546875
351,1423.1998291015625,1388.9605712890625
352,1370.947265625,1356.50537109375
353,1317.6585693359375,1323.7935791015625
354,1264.40869140625,1291.197021484375
355,1211.49462890625,1259.044921875
356,1159.3916015625,1227.5709228515625
357,1109.0711669921875,1197.263671875
358,1060.5250244140625,1168.290283203125
359,1014.0984497070312,1140.8153076171875
360,970.4738159179688,1114.69873046875